"서비스구분","서비스ID","대분류명","소분류명","서비스상태","서비스명","결제방법","장소명","서비스대상","바로가기URL","장소X좌표","장소Y좌표","서비스개시시작일시","서비스개시종료일시","접수시작일시","접수종료일시","지역명"
"자체","S150328085650828397","교육","자연/과학","접수중","뚝섬한강 유아생태교실(뚝섬한강)","무료","뚝섬한강공원","제한없음","http://yeyak.seoul.go.kr/reservation/view.web?rsvsvcid=S150328085650828397","37.52936286135093","127.07397601338304","2015-04-01 00:00:00.0","2020-10-30 00:00:00.0","2015-04-01 00:00:00.0","2020-10-30 00:00:00.0","광진구"
"자체","S200303155356433827","교육","체험/견학","예약일시중지","구의아리수정수센터 견학","무료","구의아리수정수센터","제한없음(5세이상 견학가능)","http://yeyak.seoul.go.kr/reservation/view.web?rsvsvcid=S200303155356433827","37.54412055904862","127.09281073282959","2020-03-03 00:00:00.0","2020-12-31 00:00:00.0","2020-03-03 17:00:00.0","2020-12-31 23:59:00.0","광진구"
"자체","S200523082716207482","교육","자연/과학","예약일시중지","무지개색 장미가 피었어요  (뚝섬한강)","무료","뚝섬한강공원","제한없음","http://yeyak.seoul.go.kr/reservation/view.web?rsvsvcid=S200523082716207482","37.52936286135093","127.07397601338304","2020-05-23 00:00:00.0","2020-06-30 00:00:00.0","2020-05-23 00:00:00.0","2020-06-30 00:00:00.0","광진구"