"서비스구분","서비스ID","대분류명","소분류명","서비스상태","서비스명","결제방법","장소명","서비스대상","바로가기URL","장소X좌표","장소Y좌표","서비스개시시작일시","서비스개시종료일시","접수시작일시","접수종료일시","지역명"
"연계","SEEDFIX-628","체육시설","운동장","접수중","강북구민운동장","유료","강북구민운동장","일반시민","http://www.gangbukcmc.seoul.kr/sports/group07/page02.php","","","","","","","강북구"
"연계","SEEDFIX-629","체육시설","배드민턴장","접수중","오동근린공원실내배드민턴장","유료","오동근린공원실내배드민턴장","일반시민","http://www.gangbukcmc.seoul.kr/sports/group09/page04.php","","","","","","","강북구"
"연계","SEEDFIX-627","체육시설","체육관","접수중","강북웰빙스포츠센터 종합체육관","유료","강북웰빙스포츠센터","일반시민","http://www.gangbukcmc.seoul.kr/sports/group04/page06.php","","","","","","","강북구"