"서비스구분","서비스ID","대분류명","소분류명","서비스상태","서비스명","결제방법","장소명","서비스대상","바로가기URL","장소X좌표","장소Y좌표","서비스개시시작일시","서비스개시종료일시","접수시작일시","접수종료일시","지역명"
"자체","S200520111609418424","교육","체험/견학","접수종료","(6/15(월) 서울둘레길) 관악산 '걷다' 둘레둘레 숲길산책","무료","관악산(사당역 6번 출구 수경공원)","청소년성인어린이가족","http://yeyak.seoul.go.kr/reservation/view.web?rsvsvcid=S200520111609418424","37.47652436655696","126.9814093612868","2020-05-20 00:00:00.0","2020-06-15 00:00:00.0","2020-05-20 10:00:00.0","2020-06-11 12:00:00.0","동작구"
"자체","S200525131229557126","교육","자연/과학","접수중","보라매공원 자연놀이터","무료","보라매공원","어린이(6세이상 어린이와 보호자)","http://yeyak.seoul.go.kr/reservation/view.web?rsvsvcid=S200525131229557126","","","2020-05-25 00:00:00.0","2020-06-27 00:00:00.0","2020-05-25 14:00:00.0","2020-06-26 17:00:00.0","동작구"
"자체","S200525132042016140","교육","자연/과학","접수중","가족이 함께하는 숲 밧줄놀이","무료","보라매공원","가족(초등학교 어린이와 보호자)","http://yeyak.seoul.go.kr/reservation/view.web?rsvsvcid=S200525132042016140","","","2020-05-25 00:00:00.0","2020-06-20 00:00:00.0","2020-05-25 14:00:00.0","2020-06-19 17:00:00.0","동작구"
"자체","S200526141500254641","교육","체험/견학","접수중","서달산 숲해설","무료","서달산유아숲체험장","제한없음","http://yeyak.seoul.go.kr/reservation/view.web?rsvsvcid=S200526141500254641","37.498936865110124","126.95694739257652","2020-05-27 00:00:00.0","2020-12-04 00:00:00.0","2020-06-15 00:00:00.0","2020-12-04 00:00:00.0","동작구"