"향토문화유적명","문화유적지정번호","향토문화유적구분","향토문화유적종류","우편번호","소재지도로명주소","소재지지번주소","위도","경도","지정일자","소유주체구분","소유자명","규모","조성시대","이미지정보","향토문화유적소개","관리기관전화번호","관리기관명","데이터기준일자"
"판소리(수궁가)","서울특별시지정 무형문화재 제32호","무형문화유적","판소리","06039","서울특별시 강남구 도산대로8길 17-7 (논현동 대현빌라)","서울특별시 강남구 논현동 13-14","37.516369","127.022975","2013-01-03","사유","","","","","수궁가는 판소리 다섯마당 중의 하나로 토별가?토끼타령?별주부타령이라고 부르기도 한다. 용왕이 병이 들자 약에 쓸 토끼의 간을 구하기 위하여 자라는 세상에 나와 토끼를 꾀어 용궁으로 데리고 간다. 그러나 토끼는 꾀를 내어 용왕을 속이고 살아 돌아온다는 이야기를 판소리로 엮은 것이다.","","개인","2018-04-23"
"봉화산 도당굿","서울특별시지정 무형문화재 제34호","무형문화유적","민간신앙","06201","서울특별시 강남구 삼성로69길 29-1 (대치동)","서울특별시 강남구 대치동 916-80","37.501274","127.057035","2005-01-10","사유","","","","","봉화산도당의 신상(神像)은 불사산신할머니로 흰색 고깔에 흰색 장삼을 입고 붉은 가사를 입고 앉은 자세이다. 이곳에 산신할머니를 모시게 된 유래에 대해 “먼 옛날 이곳에서 산신을 정성껏 모시던 할머니가 세상을 떠나고 이곳 마을 주민들이 이 할머니를 산신할머니로 섬기게 되었다.”라는 이야기가 마을에 전한다. 또 건물 안에는 높이 5척의 석불(石佛)이 안치되어 있었는데 언제부터인지 고깔을 쓴 산신할머니 소상으로 대체되었다고 한다. 석불에 대해서는 그 형태를 알 수 없어 그것이 불상 형태인지 또는 자의적으로 된 일반 석상인지는 알 수가 없으나 봉화산의 도당에서 오랫동안 산신을 섬겨왔다는 것은 확실하다. 제례(祭禮)의 축문에 “봉화산 산신께 엎드려 감히 고하나이다.”라는 문구가 이를 입증하고 있다.","","개인","2018-04-23"
"봉산탈춤","중요무형문화재 제17호","무형문화유적","연극","06153","서울특별시 강남구 봉은사로 406 (삼성동)","서울특별시 강남구 삼성동 112-2","37.51037","127.044621","1967-06-16","사유","","","","","1967년 6월 16일 중요무형문화재(현 국가무형문화재) 제17호로 지정되었다. 해서(海西:황해도 일대) 탈춤에 속하며 산대도감(山臺都監) 계통의 극이다. 예부터 해서의 각 지방에는 5일장이 서는 거의 모든 장터에서 1년에 한번씩은 탈춤놀이가 벌어졌는데 그중에서도 봉산은 남북을 잇는 유리한 지역적 조건 때문에 나라의 각종 사신(使臣)을 영접하는 행사가 잦았고 또 지방의 농산물이 모여드는 중심지였기에 더욱 이런 놀이가 성행하였다. 약 200여 년 전 봉산에서 이속(吏屬) 노릇을 하던 안초목(安草木:初目의 訛傳)이 전남에 있는 어느 섬에 유배되었다가 돌아온 후 나무탈을 종이탈로 바꾸는 등 많은 개혁을 이루어 놓았다고 한다. 그리하여 19세기 말기부터 해서탈춤의 대표적 놀이로 발전하였다. 연희(演戱)시기는 5월 단옷날 밤에 시작하여 다음날 새벽까지로 원래는 4월 초파일에 놀았다. 단오 때 외에도 원님의 생일이나 원님이 부임하는 날 사신의 영접 탈춤대회가 있을 때도 연희되었다. 연희장소는 봉산의 구읍(舊邑)인 경수대(競秀臺)였으나 1915년경 군청 등 행정기관이 사리원(沙里院)으로 옮겨지자 이 놀이판도 사리원 경암산(景岩山) 아래로 옮겨졌다. 당시 놀이에 사용되는 비용은 지방의 유지나 상인들이 부담하였다.","02-566-6300","서울국가무형문화재전수회관","2018-04-23"
"선소리산타령","중요무형문화재 제19호","무형문화유적","연극","06153","서울특별시 강남구 봉은사로 406 (삼성동)","서울특별시 강남구 삼성동 112-2","37.51037","127.044621","1968-04-18","사유","","","","","서서 소리하는 선소리의 대표적 곡목으로 서울 ? 경기지역과 서도지방에서 불리는 잡가. 중요무형문화재 제19호 종류에는 경기 산타령과 서도(西道) 산타령이 있고 각각 <놀량> ? <앞산타령> ? <뒷산타령> ? <자진산타령>으로 되어 있다. <자진산타령>은 경기에서<도라지타령>이라 하고 서도에서는 <경발림> 또는 <경사거리>라고도 부른다","02-566-6300","서울국가무형문화재전수회관","2018-04-23"
"가야금산조및병창","중요무형문화재 제23호","무형문화유적","연극","06001","서울특별시 강남구 압구정로 151 (압구정동 현대아파트)","서울특별시 강남구 압구정동 426","37.526307","127.024693","1968-12-21","사유","","","","","1968년 12월 21일 중요무형문화재 제23호로 지정되었다. 가야금산조란 가야금으로 연주하는 기악독주곡이다. 판소리에서 보이는 남도향토가락이 4?6개의 장단으로 구분되는 악장으로 짜여진 것인데 느린장단에서 빠른장단 순으로 구성된다. 곡은 느린진양조 보통빠른중모리 좀빠른중중모리 빠른자진모리 매우빠른휘모리 장단으로 짠다.","","개인","2018-04-23"
"가야금산조및병창","중요무형문화재 제23호","무형문화유적","연극","","","서울특별시 강남구 세곡동","37.469218","127.107641","1968-12-21","사유","","","","","1968년 12월 21일 중요무형문화재 제23호로 지정되었다. 가야금산조란 가야금으로 연주하는 기악독주곡이다. 판소리에서 보이는 남도향토가락이 4?6개의 장단으로 구분되는 악장으로 짜여진 것인데 느린장단에서 빠른장단 순으로 구성된다. 곡은 느린진양조 보통빠른중모리 좀빠른중중모리 빠른자진모리 매우빠른휘모리 장단으로 짠다.","","개인","2018-04-23"
"승무","중요무형문화재 제27호","무형문화유적","연극","","","서울특별시 강남구 자곡동","37.474592","127.095309","1969-07-04","사유","","","","","1969년 7월 4일 중요무형문화재(현 국가무형문화재) 제27호로 지정되었다. 불교적인 색채가 강한 독무(獨舞)로 한국무용 특유의 ‘정중동(靜中動)?동중정(動中靜)’의 정수가 잘 표현되어 민속무용 중 가장 예술성이 높다는 평가를 받는다. 무원(舞員)의 복장은 대개 날렵하게 걷어올린 남색 치마에 흰 저고리?흰 장삼을 걸쳤고 머리에는 흰 고깔을 어깨에는 붉은 가사를 입었으며 양손에는 북채를 든다. 북을 향하여 관객을 등진다는 점이라든지 머리에 고깔을 써서 얼굴을 확연히 볼 수 없게 한 점 등은 관객에게 아첨하지 않으려는 예술 본연의 내면적인 멋을 자아내는 춤이다.","","개인","2018-04-23"
"강령탈춤","중요무형문화재 제34호","무형문화유적","연극","06145","서울특별시 강남구 선릉로107길 3-4 (역삼동)","서울특별시 강남구 역삼동 683-2","37.509106","127.043817","1970-07-22","사유","","","","","강령탈춤은 황해도 강령(康翎)지방에서 유래된 마당놀이로서 탈꾼이 탈(가면)을 쓰고 춤을 추면서 노래와 극적인 대사를 하는 종합예술극. 강령탈춤은 주로 정초 대보름 초파일 단오 추석 같은 명절날 놀았으며 때에 따라서는 나라의 경사가 있을 때나 마을 주민들의 화합을 다지는 대동 행사 때 놀았다. 이를 강령탈놀이 강령가면극 강령가면무극이라고도 한다.","02-566-6300","서울국가무형문화재전수회관","2018-04-23"
"대목장","중요무형문화재 제74호","무형문화유적","공예","06317","서울특별시 강남구 언주로 110 (개포동 경남아파트)","서울특별시 강남구 개포동 649","37.484723","127.0543","1982-06-01","사유","","","","","집 짓는 일의 전과정 즉 재목을 마름질하고 다듬는 기술설계는 물론 공사의 감리까지의 전과정을 책임지는 목수로서 궁궐이나 사찰 군영시설 등을 건축하는 도편수. 중요무형문화재 제74호.","","개인","2018-04-23"
"입사장","중요무형문화재 제78호","무형문화유적","공예","","","서울특별시 강남구 삼성동","37.514422","127.056548","1983-06-01","사유","","","","","입사란 금속공예의 일종으로 금속표면에 홈을 파고 금선(金線) 또는 은선(銀線)을 끼워넣어서 장식하는 기법을 말하며 이전에는 ‘실드리다’라는 말로 표현했다. 이러한 입사 기술과 그 기술을 가진 사람을 입사장이라고 한다. 입사공예의 유래는 정확하지 않으나 기원전 1 2세기경의 낙랑(樂浪) 출토유물에서 처음으로 선보였고 신라의 고분에서 나온 유물로 보아 신라시대에는 매우 발달했음을 짐작할 수 있다.","","개인","2018-04-23"
"서울새남굿","중요무형문화재 제104호","무형문화유적","민간신앙","06153","서울특별시 강남구 봉은사로 406 (삼성동)","서울특별시 강남구 삼성동 112-2","37.510478","127.044621","1996-05-01","사유","","","","","죽은 자를 위해 행해지는 서울 지역 무속의 죽음의례에서 규모가 가장 큰 굿. 서울 무속의 죽음의례 중 대표적인 것은 진오기굿으로 이러한 진오기굿 중에서 규모가 가장 큰 굿이 새남굿이다. 서울새남굿은 다시 규모에 따라 얼새남 원새남 천근새남 쌍궤새남 등으로 나뉜다.","02-566-6300","서울국가무형문화재전수회관","2018-04-23"
"전주이씨 광평대군파 묘역","서울특별시지정 유형문화재 제48호","유형문화유적","묘","06353","서울특별시 강남구 광평로31길 20 (수서동)","서울특별시 강남구 수서동 산10-1","37.486124","127.092166","1981-02-05","사유","","","","","1981년에 서울특별시유형문화재 제48호로 지정되었다. 전체 면적 413300㎡인 산에 광평대군 내외의 묘와 아들인 영순군(永順君)의 묘를 비롯해 광평대군의 양아버지인 무안대군(撫安大君) 방번(芳蕃) 내외의 묘 등 700여 기의 무덤이 있는 공동묘역이다.","02-459-4733","광평대군파종중","2018-04-23"
"봉은사 선불당","서울특별시지정 유형문화재 제64호","유형문화유적","사찰건축","06087","서울특별시 강남구 봉은사로 531 (삼성동)","서울특별시 강남구 삼성동 73","37.515509","127.057504","1985-12-05","사유","","","","","봉은사(奉恩寺) 대웅전 한단 아래의 왼쪽에 자리잡고 있는 일반 대중을 위한 선방(禪房)이다.","02-3218-4812","대한불교조계종봉은사","2018-04-23"
"홍무25년장흥사명동종","서울특별시지정 유형문화재 제76호","유형문화유적","동종류","06087","서울특별시 강남구 봉은사로 531 (삼성동)","서울특별시 강남구 삼성동 73","37.515509","127.057504","1991-05-28","사유","","","","","1991년 5월 28일 서울특별시유형문화재 제76호로 지정되었다. 원래 경기도 여주시에 있던 장흥사에 봉안되었으나 지금은 서울의 봉은사에 있다. 이전된 시기는 정확히 알 수 없지만 《봉은본말사지(奉恩本末寺誌)》의 〈봉은사불망기(奉恩寺不忘記)〉에 따르면 1705년(숙종 31) 장흥사가 철거되면서 그곳에 있던 불상과 기물 재와(材瓦) 등이 봉은사로 이전되었다고 기록된 것으로 보아 아마도 이때 함께 옮겨진 것으로 추정된다.","02-3218-4812","대한불교조계종봉은사","2018-04-23"
"봉은사판전현판","서울특별시지정 유형문화재 제83호","유형문화유적","현판","06087","서울특별시 강남구 봉은사로 531 (삼성동)","서울특별시 강남구 삼성동 73","37.515509","127.057504","1992-12-28","사유","","","","","판전은 경판을 보존하기 위한 건물로 이 안에는 대방광불화엄경(大方廣佛華嚴經) 수소연의(隨疏演義) 초판 3175점이 보존되어 있다. 이것은 조선 철종 7년(1856)에 율사로 이름을 떨친 남호(南湖) 영기(永奇)스님이 조성하였다 하며 지금 서울특별시 유형문화재 제84호로 지정되어 있다. 이 목판을 봉안하기 위하여 신축한 건물이 판전이고 여기에 현판으로 걸린 추사 김정희의 글씨가 곧 김정희서판전현판이다.","02-3218-4812","대한불교조계종봉은사","2018-04-23"
"대방광불화엄경수소연의초목판","서울특별시지정 유형문화재 제84호","유형문화유적","전적류","06087","서울특별시 강남구 봉은사로 531 (삼성동)","서울특별시 강남구 삼성동 73","37.515509","127.057504","1992-12-28","사유","","","","","봉은사에서 왕궁의 내탕금(內帑金)과 각계의 시주를 얻어 1856년(철종 7) 9월 판각이 완성되었다. 이 화엄경판을 봉안하기 위해 법당을 신축하고 추사 김정희의 글씨를 받아 현판을 걸었으니 이 건물이 바로 현재의 봉은사 판전이다. 1992년 12월 28일 서울특별시 유형문화재 제84호로 지정되었다.","02-3218-4812","대한불교조계종봉은사","2018-04-23"
"봉은사목사천왕상","서울특별시지정 유형문화재 제160호","유형문화유적","불상","06087","서울특별시 강남구 봉은사로 531 (삼성동)","서울특별시 강남구 삼성동 73","37.515509","127.057504","2002-12-26","사유","","","","","불교의 우주관에 따라 세계의 중심인 수미산(須彌山) 중턱을 둘러싼 사방의 세계를 수호하는 신을 사천왕이라 한다. 동방의 지국천왕(持國天王) 서방의 광목천왕(廣目天王) 남방의 증장천왕(增長天王) 북방의 다문천왕(多聞天王)을 일컫는다. 이들 사천왕은 갑옷 입은 무장(武將)으로 표현되며 성격에 따라 각기 지물(持物)을 들고 있다. 때로는 발로 악귀를 밟고 있는 모습으로도 묘사된다. 봉은사의 사천왕상은 원래 1942년 건축된 천왕문에 있었다. 그런데 1998년 법왕루를 신축하면서 천왕문을 헐게 되어 진여문에 공간을 마련해 봉안했다가 현재는 보우당(普雨堂)으로 옮겨 보관중이다.","02-3218-4812","대한불교조계종봉은사","2018-04-23"
"봉은사목삼불상(석가불아미타불약사불)","서울특별시지정 유형문화재 제226호","유형문화유적","불상","06087","서울특별시 강남구 봉은사로 531 (삼성동)","서울특별시 강남구 삼성동 73","37.515509","127.057504","2007-09-27","사유","","","","","봉은사 대웅전의 삼세불상은 본존 석가불상 좌 약사불상 우 아미타불상 등 3존의 불상인데 본존 석가불은 1651년 작(作) 원상이 화재로 훼손되어 후보(後補)한 것이며 약사불과 아미타불상만 1651년 작(作) 원래의 불상들로서 당대 최고의 조각승 승일(勝一)이 조성한 대표적 삼세불상이다","02-3218-4812","대한불교조계종봉은사","2018-04-23"
"봉은사목삼존불상(석가불가섭존자아난존자)","서울특별시지정 유형문화재 제227호","유형문화유적","불상","06087","서울특별시 강남구 봉은사로 531 (삼성동)","서울특별시 강남구 삼성동 73","37.515509","127.057504","2007-09-27","사유","","","","","현재 봉은사 대웅전 뒤편에 소재한 영산전에 봉안되어 있는 목조석가불좌상과 목조가섭존자와 아난존자입상의 좌우 협시상이 삼존을 구성하고 있으며 삼존상의 좌우에는 십육나한상이 봉안되어 있다. 본존석가상은 불신 좌우 앞 뒤로 양감이 느껴지는 체구로 무릎 폭은 체구에 비해 좁은 편이다. 세부를 살펴보면 머리와 육계의 경계가 뚜렷하지 않아 마치 투구를 쓴 것처럼 두부가 둥글게 표현되었고 그 정상에는 정상계주를 두부의 전면중앙에는 반원형의 중간계주가 새겨져 있으며 머리위에는 나발이 촘촘하다. 얼굴은 방형에 가까운 둥근 상호에 이마의 선이 수평하고 이목구비는 다소 평면적이며 차분한 인상을 주는데 입의 양끝이 올라간 고졸한 표현이 눈에 띤다. 어깨는 둥글고 대의는 우견편단식으로 입었는데 오른쪽 어깨를 감싼 대의자락이 허리안으로 들어가는 형태의 이른바 변형식 우견편단 착의법을 나타내고 있는데 조선후기에 흔히 보이는 표현이라고 하겠다. 가슴에는 군의의 윗부분이 드러나고 양쪽 무릎에는 부채꼴로 옷주름이 새겨져 있는데 매우 도식화되었다. 오른손은 촉지인처럼 아래로 내렸고 별재로 제작하여 손목에 끼워 넣은 왼손을 무릎위에 올려 손가락을 약간 구부려서 엄지와 중지를 맞대고 있는데 오른손은 아래로 내렸는데 이 수인은 조각승 무염이 조성한 불갑사 대웅전 목조삼세불좌상의 본존 석가불상(1635년)을 비롯한 조선후기 석가불에서 자주 표현되는 수인이다","02-3218-4812","대한불교조계종봉은사","2018-04-23"
"봉은사 목십육나한상","서울특별시지정 유형문화재 제228호","유형문화유적","불상","06087","서울특별시 강남구 봉은사로 531 (삼성동)","서울특별시 강남구 삼성동 73","37.515509","127.057504","2007-09-27","사유","","","","","십육나한상은 전체적으로 개성이 느껴지지 않는 획일화된 얼굴과 경직된 신체의 표현에서 조선말기 나한상의 특징을 보이고 있는데 이 상들이 봉안되어있는 영산전 후불탱화 화기의 내용으로 미루어 볼 때 1895년 경에 조성된 것으로 추정되어 조선 말기의 기년작으로서 중요한 예라고 생각된다. 함께 섞여있는 신작(新作)의 나한상들은 향 우측의 나한상들 가운데 세 번째와 일곱 번째 상 향 좌측의 나한상 가운데 세 번째와 여섯 번째 상으로 원래의 나한상들보다 체구와 두부가 크며 얼굴의 표현도 다르다","02-3218-4812","대한불교조계종봉은사","2018-04-23"
"봉은사대웅전신중도","서울특별시지정 유형문화재 제229호","유형문화유적","불화","06087","서울특별시 강남구 봉은사로 531 (삼성동)","서울특별시 강남구 삼성동 73","37.515509","127.057504","2007-09-27","사유","","","","","1844년 7월 조성하였으며 봉은사 대웅전에 봉안되어 있다. 세로 200.5cm 가로 245cm 규모의 비단 바탕에 그렸는데 화기에 의하면 상궁들의 시주로 송암당 대원 월하당 세원 등이 제작하였다고 한다. 화면의 위쪽에는 구곡병(九曲屛)을 두르고 향 오른쪽에는 위태천과 천룡팔부 등의 신장 향 왼쪽에는 범천과 제석천을 비롯한 천부중을 배치해 놓았다.","02-3218-4812","대한불교조계종봉은사","2018-04-23"
"봉은사판전신중도","서울특별시지정 유형문화재 제230호","유형문화유적","불화","06087","서울특별시 강남구 봉은사로 531 (삼성동)","서울특별시 강남구 삼성동 73","37.515509","127.057504","2007-09-27","사유","","","","","현재 판전의 향 좌측 벽에 봉안되어 있는 신중도로서 1857년 판전 중단탱으로 조성되었다. 초의선사 의순(草衣禪師 意恂)이 증명으로 참여하였으며 돈석(頓錫) 법유(法宥) 혜오(惠悟) □규(□奎) □일(□一) 석눌(錫訥) 등이 출초(出草)하고 금어(金魚) 비구(比丘) 선율(善律) 유진(有進) 법인(法仁) 진조(進浩) 등이 제작하였다. 현재 화기 앞부분이 떨어져 나가 정확한 조성연대가 알 수 없지만 시주자인 박용석(朴龍石)이 <봉은사개금탱화시주목록(奉恩寺改金幀畵施主目錄)〉(1857년)에도 그 이름이 올라있고《불량답매입기(佛糧畓買入記)》에 1857년(철종8) 영기대사(永奇大師) 등이 권화(勸化)하여 판전에 신중탱화를 조성했다는 기록이 남아있어 1856년 판전을 건립하고 그 다음해인 1857년에 조성한 것으로 추정된다.","02-3218-4812","대한불교조계종봉은사","2018-04-23"
"봉은사괘불도","서울특별시지정 유형문화재 제231호","유형문화유적","불화","06087","서울특별시 강남구 봉은사로 531 (삼성동)","서울특별시 강남구 삼성동 73","37.515509","127.057504","2007-09-27","사유","","","","","1886년 헌종의 후궁인 순화궁 김씨(順和宮 金氏)를 비롯한 여러 상궁들의 시주에 의해 조성된 것으로 원통불사(圓通佛事)를 기념하며 제작되었다. 19세기 서울 경기지역의 대표적 화승 가운에 한 사람인 대허체훈(大虛 ?訓)이 출초하고 영명천기(影明天機)와 긍조(亘照) 돈조(頓照)가 함께 제작하였다. 면본으로 4폭의 천을 이어 그림을 그리고 양쪽에 나무 봉으로 마감하였는데 세로 686cm 가로 394.5cm의 거대한 화면에 1불 2보살 2제자만을 그린 간단한 구도를 취하고 있다.","02-3218-4812","대한불교조계종봉은사","2018-04-23"
"봉은사비로자나불도","서울특별시지정 유형문화재 제232호","유형문화유적","불화","06087","서울특별시 강남구 봉은사로 531 (삼성동)","서울특별시 강남구 삼성동 73","37.515509","127.057504","2007-09-27","사유","","","","","현재 판전의 후불탱화로 봉안되어 있는 비로자나불화로 1886년 칠성도 산신도와 함께 조성되었으나 칠성도는 1942년에 북극보전을 지으면서 그곳으로 이안하였고 산신도는 남아있지 않다. 등운 수은(騰雲 修隱)이 화주가 되어 상궁 8인의 시주로 조성하였으며 영명 영기(影明 影機)의 주도 하에 경선 응석(慶船 應釋)이 출초를 하고 동호 진철(東昊 震徹) 연하 계창(蓮荷 啓昌) 종현 현조(宗現 賢調) 혜능 창인(惠能 彰仁) 등이 함께 제작하였다. 세로 302.3cm 가로 236cm의 면본채색화로서 비로자나삼존과 가섭존자 아난존자 사천왕만을 그린 간단한 구도를 취하고 있다","02-3218-4812","대한불교조계종봉은사","2018-04-23"
"봉은사칠성도","서울특별시지정 유형문화재 제233호","유형문화유적","불화","06087","서울특별시 강남구 봉은사로 531 (삼성동)","서울특별시 강남구 삼성동 73","37.515509","127.057504","2007-09-27","사유","","","","","1886년 4월에 조성하였으며 봉은사 북극보전에 봉안되어 있다. 본래 판전에 봉안하였던 것을 1942년 북극보전으로 옮겨 봉안한 것이다. 치성광여래는 흰 소가 끄는 마차 위 연화대좌 위에 결가부좌하고 있는데 얼굴은 둥글고 육계가 뾰족하다. 오른손은 가슴 쪽으로 들어 올려 손가락을 맞대고 있으며 왼손은 금륜(金輪)을 들고 있다. 치성광여래 아래에는 해와 달을 신격화한 일광보살(日光菩薩)과 월광보살(月光菩薩)이 각각 붉은 해와 흰 달이 그려진 보관을 쓰고 본존을 향해 합장하고 있으며 그 옆에는 2명의 동자가 향로와 과일을 공양하고 있다.","02-3218-4812","대한불교조계종봉은사","2018-04-23"
"봉은사삼세불도","서울특별시지정 유형문화재 제234호","유형문화유적","불화","06087","서울특별시 강남구 봉은사로 531 (삼성동)","서울특별시 강남구 삼성동 73","37.515509","127.057504","2007-09-27","사유","","","","","이 불화는 현재 봉은사 대웅전에 후불탱화로 안치되어 있는데 그 앞에 모셔져 있는 삼세불상이 17 8세기경의 작품인 것을 볼 때 1892년 대웅전의 불화를 제작하면서 불상과 같은 형식의 삼세불화를 그린 것으로 추정된다. 세로 319.7cm 가로 291.8cm의 대규모 면본 채색화로 현 대웅전의 후불벽보다는 폭이 좁지만 1892년 당시 대웅전의 후불벽 규모에 맞춰 제작한 것으로 보인다.","02-3218-4812","대한불교조계종봉은사","2018-04-23"
"봉은사삼장보살도","서울특별시지정 유형문화재 제235호","유형문화유적","불화","06087","서울특별시 강남구 봉은사로 531 (삼성동)","서울특별시 강남구 삼성동 73","37.515509","127.057504","2007-09-27","사유","","","","","조선 말기의 문신 민두호의 시주로 1892년에 조성하였다. 세로 198.4cm 가로 402.5cm에 이르는 대형의 면본채색화로서 봉은사 대웅전 후불벽 뒷면에 봉안되어 있다. 불화는 직사각형의 화면 중앙에 천장보살(天藏菩薩)과 권속을 배치하고 향우측에 지지보살(持地菩薩)과 권속 향좌측에 지장보살(地藏菩薩)과 권속을 묘사하였다.","02-3218-4812","대한불교조계종봉은사","2018-04-23"
"봉은사감로도","서울특별시지정 유형문화재 제236호","유형문화유적","불화","06087","서울특별시 강남구 봉은사로 531 (삼성동)","서울특별시 강남구 삼성동 73","37.515509","127.057504","2007-09-27","사유","","","","","조선 말기의 문신 민두호의 시주로 1892년에 조성하였다. 세로 198.4cm 가로 402.5cm에 이르는 대형의 면본채색화로서 봉은사 대웅전 후불벽 뒷면에 봉안되어 있다. 불화는 직사각형의 화면 중앙에 천장보살(天藏菩薩)과 권속을 배치하고 향우측에 지지보살(持地菩薩)과 권속 향좌측에 지장보살(地藏菩薩)과 권속을 묘사하였다.","02-3218-4812","대한불교조계종봉은사","2018-04-23"
"봉은사영산회상도","서울특별시지정 유형문화재 제237호","유형문화유적","불화","06087","서울특별시 강남구 봉은사로 531 (삼성동)","서울특별시 강남구 삼성동 73","37.515509","127.057504","2007-09-27","사유","","","","","이 불화는 1895년 영산전의 불상과 좌우 보처 나한상 등을 개금할 때 나한도 4폭 사자도 1폭과 함께 제작된 것으로 세로 114.8cm 가로 196.5cm의 가로로 긴 직사각형의 화면에 석가모니와 6보살 제자 사천왕 금강신 등을 배치하였는데 인물들은 3열로 가지런하게 배열하여 화면을 꽉 채우고 있다. 본존 석가모니는 이중륜광(二重輪光)을 지니고 나지막한 수미대좌 위의 연화좌에 결가부좌하였는데 정상계주 위로 여러 갈래의 빛이 위로 향해 뻗어나가고 있다. 나발(螺髮)의 머리는 위가 뾰족하며 얼굴은 둥근 편으로 이마부분이 다소 넓고 턱 아래 부분이 좁아져서 원만한 상호를 보여주고 있고 가늘고 긴 눈썹과 눈 코와 입 등이 작게 묘사되었다.","02-3218-4812","대한불교조계종봉은사","2018-04-23"
"봉은사십육나한도","서울특별시지정 유형문화재 제238호","유형문화유적","불화","06087","서울특별시 강남구 봉은사로 531 (삼성동)","서울특별시 강남구 삼성동 73","37.515509","127.057504","2007-09-27","사유","","","","","1895년에 조성한 나한도로 봉은사 영산전에 후불탱화 좌우로 2폭씩 봉안되어 있다. 16존자를 1존자씩 그린 뒤 4존자를 1폭으로 하여 총 4폭으로 구성하였는데 이 중 제 10 11 13 15 존자도는 결실되어 1955년에 만봉(萬峰)과 석성(碩成)이 새로 그렸다. 각 존자도의 존자명과 화기가 남아 있어 당시의 대표적인 화승 상규(尙奎) 경선 응석(慶船 應釋) 종선(宗禪) 창민(昌玟) 성전(性?) 경협(景?) 재겸(在謙) 등이 참여 제작하였음을 알 수 있다.","02-3218-4812","대한불교조계종봉은사","2018-04-23"
"인천해관문서","서울특별시지정 유형문화재 제294호","유형문화유적","관부문서","06050","서울특별시 강남구 언주로 721 (논현동)","서울특별시 강남구 논현동 71","37.518619","127.033885","2009-11-03","국유","","","","","인천해관문서는 1883년(고종 20) 2월부터 1885년(고종 22) 9월까지 인천해관에서 발생한 여러 사건들과 업무처리에 관련된 내용을 담고 있는 문서들로 해관원들이 육필로 기록하였다. 이 자료에는 121건의 문건이 수록되었는데 원래 진기홍(우정사학자)씨가 수집하여 소장하고 있었다. 그 후 1980년 관세청에 기증되어 서울세관 관세박물관에 소장되었으며 하드커버를 포함하여 199장의 영문 필기체로 작성된 양장본이다. 2009년 11월 5일에 서울특별시 유형문화재 제294호로 지정되었다.","02-510-1114","서울세관","2018-04-23"
"삼강행실도","서울특별시지정 유형문화재 제302호","유형문화유적","문헌","06236","서울특별시 강남구 테헤란로 142 (역삼동)","서울특별시 강남구 역삼동 736-1","37.49994","127.034887","2010-02-11","사유","","","","","삼강(三綱)을 세우고 유교적 사회 질서를 유지하기 위해 편찬된 『삼강행실도』 가운데 한글로 언해한 것을 기영(箕營: 평안도 감영)에서 간행한 윤리서이다. 2010년 2월 11일에 서울특별시 유형문화재 제302호로 지정되었다.","","개인","2018-04-23"
"선종유심결등합철","서울특별시지정 유형문화재 제319호","유형문화유적","문헌","06006","서울특별시 강남구 압구정로 309 (압구정동 현대아파트)","서울특별시 강남구 압구정동 481","37.53099","127.035242","2011-09-08","사유","","","","","중국과 우리나라 고승의 법어와 행장 등 4종의 책을 한 책으로 합철해 놓았다. 4종은 북송의 연수(延壽)가 지은 『선종유심결』 확암화상이 깨달음의 과정을 마치 소를 찾아가는 과정에 비유한 『정주양산확암화상십우도송병서(鼎州梁山廓庵和尙十牛圖頌幷序)』 보조국사 지눌이 지은 선 수행의 지침서인 『목우자수심결(牧牛子修心訣)』 양억(楊億)이 지은 현각(玄覺)의 행장인 『무상대사행장(無相大師行狀)』등이다. 현재 서울특별시 유형문화재 제319호 지정되어 있다.","","개인","2018-04-23"
"북청사자놀음","중요무형문화재 제15호","무형문화유적","연극","06153","서울특별시 강남구 봉은사로 406 (삼성동)","서울특별시 강남구 삼성동 112-2","37.51037","127.044621","1967-03-31","사유","","","","","1967년 3월 31일 중요무형문화재(현 국가무형문화재) 제15호로 지정되었다. 놀이의 목적은 벽사진경(?邪進慶)에 있는데 벽사할 능력을 가진 백수(百獸)의 왕 사자로 잡귀를 몰아내어 마을의 평안을 유지한다는 것이다. 놀이의 비용은 집집마다 돌아다니면서 벽사를 해준 후에 받는 돈과 곡식으로 충당하였다. 놀이의 기원에 대하여 《삼국사기》 〈신라본기〉에 이사부(異斯夫)가 지금의 울릉도인 우산국(于山國)을 칠 때 나무로 만든 사자를 이용하였다는 기록이 보이고 최치원(崔致遠)이 지은 《향악잡영(鄕樂雜詠)》 5수(首) 중에서 산예(?猊)는 사자춤을 가리킨 말이다.","02-566-6300","서울국가무형문화재전수회관","2018-04-23"
"완남부원군 이후원 묘역","시도기념물 제29호","기념물","묘","","","서울특별시 강남구 자곡동 산39-3","37.475286","127.09625","2009-12-31","사유","","","","","광수산 앞 언덕 너머 대모산 동남쪽 기슭에 위치해 있는 완남부원군 이후원 묘역은 토지면적 15291㎡ 가운데 2039.6㎡와 분묘 1기 석물 8기를 포함하여 2009년 12월 30일 서울특별시 기념물 제29호로 지정되었다. 전주 이씨 광평 대군파 완남부원군 종회에서 관리하고 있다. 이곳에는 완남부원군 이후원과 증정경부인 광주 김씨 및 정경부인 영월 신씨의 묘역 이후원의 장증손인 이섭(李涉)과 증정부인 안동 김씨 및 증정부인 파평 윤씨의 묘역 이후원의 장현손인 이현록(李顯祿)과 정부인 안동 권씨의 묘역 이후원의 차현손인 이현복(李顯福)과 숙부인 남원 윤씨의 묘역이 같이 있다. 이후원의 묘역은 현종 1년(1660) 조성된 초장지 경기도 금천(衿川) 일직촌(一直村) 삼석산(三石山)에서 1685년 광주 세촌(細村) 금성산(金星山)을 거쳐 숙종 40년(1714) 현재의 위치인 광주 지곡자(池谷子)로 이장되었다.","02-445-2115","전주이씨광평대군파완남부원군종회","2018-04-23"
"우암송시열 초구 일령","민속문화재 제26호","민속자료","의복","06007","서울특별시 강남구 압구정로 321 (압구정동 한양아파트)","서울특별시 강남구 압구정동 489","37.529318","127.038148","1977-09-05","사유","","","","","효종이 방한용으로 입던 옷을 송시열에게 한 것이다. 서울특별시 민속자료 제26호. 초구란 초피(貂皮) 또는 돈피(?皮)라고도 하는 족제비과의 담비 모피를 여러장 이어서 만든 갖저고리 형태의 구의(?衣)이다.","","개인","2018-04-23"
"삼해주약주","서울특별시지정 무형문화재 제8호","무형문화유적","전통주","06005","서울특별시 강남구 압구정로29길 57 (압구정동 현대아파트)","서울특별시 강남구 압구정동 현대아파트","37.532586","127.025423","1993-02-13","사유","","","","","삼해주는 조선시대 소곡주 과하주와 더불어 가장 널리 빚어졌던 술이다. 1993년 2월 13일 서울특별시무형문화재 제8호로 지정되었다. 기능보유자는 권희자씨이다. 찹쌀을 발효시켜 두 번 덧술하여 빚는 약주(藥酒)로 정월 첫 해일(亥日)에 시작하여 한 달 간격으로 해일마다 세 번에 걸쳐 빚는다고 하여 붙여진 이름이다. 술 빚는 데만 백일 정도가 걸려 백일주라고 부르기도 한다. 오랫동안 숙성시킨 술로 맛이 부드럽다.","","개인","2018-04-23"
"운봉수향낭","중요민속문화재 제41호","민속자료","장신구","06053","서울특별시 강남구 논현로132길 34 (논현동)","서울특별시 강남구 논현동 89-4","37.515333","127.033293","1979-01-23","사유","","","","","중요민속자료 제41호. 1979년 1월 23일 1점이 지정되었다. 크기 14.5×21cm 박쥐 매듭 11.5×6.8cm 위끈 길이 23.5cm 아래 내려뜨린 줄 길이 49cm로서 15줄씩이다. 현존하는 향낭 중에서 규모가 가장 크며 궁중 왕실용으로 침상의 벽면에 장식한 것이라 한다. 향낭의 상단부는 큰 나비가 날개를 펼치고 중심의 운봉(雲鳳)을 감싸고 있다. 하단부에는 오복(五福)을 상징하는 5마리의 박쥐와 불로초가 연꽃잎 모양으로 중심부를 떠받치고 있다. 흰색 공단수지(貢緞繡地)에 평수 ?자련수 ?매듭수 등의 기법을 구사하였다.","02-515-5118","한국자수박물관","2018-04-23"
"일월수다라니주머니","중요민속문화재 제42호","민속자료","장신구","06053","서울특별시 강남구 논현로132길 34 (논현동)","서울특별시 강남구 논현동 89-4","37.515333","127.033293","1979-01-23","사유","","","","","1979년 1월 23일 중요민속자료 제42호로 지정되었다. 다라니는 산스크리트로 모든 악법을 버리고 선량한 선법을 가진다는 뜻이며 범문의 긴 구절을 써넣은 주머니를 다라니주머니라고 한다. 희소 가치를 가지는 다라니주머니의 특징이 잘 보존되어 있으며 다른 다라니주머니에 비해 장식이 적고 훨씬 크다. 벽에 걸면 불화를 중심으로 무늬가 서로 마주보도록 연두색 공단에 자련수?평수?이음수로 수놓아져 있다. 왼쪽에 걸리는 주머니 위의 연꽃에는 삼족오가 있는 해가 오른쪽 주머니에는 토끼가 있는 달이 수놓였다. 아래에는 연잎에 싸인 연꽃이 있고 그 위에 청신녀(淸信女)가 앉아 있다. 청신녀와 연꽃 줄기 사이에 상궁 김씨와 상궁 유씨의 극락왕생을 기원하는 기원문이 수놓였다. 석씨매듭으로 장식한 주머니 밑에는 세 가닥의 끈을 매달았다. 주머니 뒤에는 시주자 성씨가 먹으로 적혀 있다.","02-515-5118","한국자수박물관","2018-04-23"
"오조룡왕비보","중요민속문화재 제43호","민속자료","장신구","06053","서울특별시 강남구 논현로132길 34 (논현동)","서울특별시 강남구 논현동 89-4","37.515333","127.033293","1979-01-23","사유","","","","","중요민속자료 제43호. 보(補)는 원래 4장이 일습이나 본 유물은 1장만 남아 있다. 연두색 양단에 발톱이 5개인 반룡(蟠龍)과 장생문?칠보문을 수놓았다. 용의 눈은 검은색 실로 용의 몸은 광택금사로 수놓았으며 가장자리는 굵은 무광택금사로 징거 양감을 주었다. 보 중앙에 여의주와 염초가 하단에 바위?물결 등의 장생문?칠보문이 있고 운문은 용을 중심으로 보 전체에 배열되었다. 장생문?칠보문은 가는 금사로 외곽선을 두 번씩 징겄으며 보의 둥근 가장자리는 굵은 명주실로 두 번씩 징겄다. 섬세하게 수놓은 궁수(宮繡)의 가작이다. 한국자수박물관에 소장되어 있다.","02-515-5118","한국자수박물관","2018-04-23"
"남사당놀이","중요무형문화재 제3호","무형문화유적","연극","06153","서울특별시 강남구 봉은사로 406 (삼성동)","서울특별시 강남구 삼성동 112-2","37.51037","127.044621","1964-12-07","사유","","","","","남사당놀이는 말 그대로 ‘남자들로 구성된 유랑광대극’으로서 원래 유랑예인들이 널리 행하던 다방면의 한국 전통 민속공연이다. 지금은 전문 극단에 의해 그 명맥을 이어 가고 있다. ‘풍물’은 꽹과리?징?장구?북 등의 타악기 소리가 강조된다. 덧뵈기는 여러 사회 계층의 사람들을 묘사하는 네 마당(마당씻이?옴탈잡이?샌님잡이?먹중잡이)으로 구성된다. 어름은 높이 매달린 외줄 위에서 곡예를 부리며 바닥의 어릿광대와 재담을 주고받는 놀이이다. 덜미에서는 50여 개의 인형들이 등장하여 등장인물이 주고받는 대사와 악사들의 음악이 일곱 마당으로 펼쳐진다. 살판은 지상에서 행하는 곡예에 재담과 음악이 곁들여진다. 그리고 나무 막대기로 쳇바퀴를 돌리는 복잡한 묘기의 버나가 공연을 풍성하게 만든다. 남사당놀이는 야외 마당에서 연희자들을 둘러싸는 시골 관객들을 즐겁게 해 줄 뿐만 아니라 중요한 사회적 메시지를 전달하기도 하였다. 특히 탈춤과 꼭두각시놀음은 남성 중심의 사회에서 여성들은 물론이고 하층민들의 억압받는 삶을 놀이로 보여 주었다. 이런 공연은 정치적으로 힘없는 자들을 대변하여 풍자로써 문제점들을 제기하기도 하고 가난한 사람들에게 꿈을 주고 삶을 이어 가게 하는 평등과 자유의 이상을 보여 주었다.","02-566-6300","서울국가무형문화재전수회관","2018-04-23"